T,T,T,T,T,T,T,T,T,T,T,T,T
T,M,M,M,M,M,M,M,M,M,M,M,T
T,M,M,M,M,M,M,M,M,M,M,M,T
T,M,M,M,M,M,M,M,M,M,M,M,T
T,M,M,M,M,M,M,M,M,M,M,M,T
T,M,M,M,M,M,M,M,M,M,M,M,T
T,M,M,M,M,M,M,M,M,M,M,M,T
T,M,M,M,M,M,M,M,M,M,M,M,T
T,M,M,M,M,M,M,M,M,M,M,M,T
T,M,M,M,M,M,M,M,M,M,M,M,T
T,M,M,M,M,M,M,M,M,M,M,M,T
T,M,M,M,E,E,E,E,M,M,M,M,T
T,T,T,T,E,E,E,E,T,T,T,T,T